{
  "images" : [
    {
      "idiom" : "universal",
      "filename" : "750 * 1334.jpg",
      "scale" : "1x"
    },
    {
      "idiom" : "universal",
      "filename" : "1242px * 2208px.jpg",
      "scale" : "2x"
    },
    {
      "idiom" : "universal",
      "filename" : "1536px * 2048px.jpg",
      "scale" : "3x"
    }
  ],
  "info" : {
    "version" : 1,
    "author" : "xcode"
  }
}